RTL/Processors/RISCV_Single_Cycle/Risc.vcd
$date
	Fri Jun 20 00:37:04 2025
$end
$version
	Icarus Verilog
$end
$timescale
	1ps
$end
$scope module Pc_Target $end
$var wire 32 ! ImmExt [31:0] $end
$var wire 32 " Pc [31:0] $end
$var wire 32 # PcTarget [31:0] $end
$upscope $end
$scope module seven_seg $end
$var wire 1 $ clk_100mhz $end
$var wire 1 % reset $end
$var wire 32 & result [31:0] $end
$var wire 1 ' one_second_enable $end
$var wire 1 ( MemWrite $end
$var wire 2 ) LED_activating_counter [1:0] $end
$var parameter 16 * FINAL_VALUE $end
$var reg 4 + Anode_Activate [3:0] $end
$var reg 4 , LED_BCD [3:0] $end
$var reg 7 - LED_out [6:0] $end
$var reg 16 . displayed_number [15:0] $end
$var reg 27 / one_second_counter [26:0] $end
$var reg 20 0 refresh_counter [19:0] $end
$scope module tt01 $end
$var wire 1 ' clk $end
$var wire 1 % reset $end
$var wire 32 1 WriteData [31:0] $end
$var wire 32 2 ReadData [31:0] $end
$var wire 32 3 PC [31:0] $end
$var wire 1 ( MemWrite $end
$var wire 32 4 Instr [31:0] $end
$var wire 32 5 ALU_OUTPUT [31:0] $end
$scope module data_mem_inst $end
$var wire 32 6 RD [31:0] $end
$var wire 1 ' clk $end
$var wire 1 ( WE $end
$var wire 32 7 WD [31:0] $end
$var wire 32 8 A [31:0] $end
$upscope $end
$scope module instruction_memory_inst $end
$var wire 32 9 data [31:0] $end
$var wire 32 : address [31:0] $end
$upscope $end
$scope module single_cycle_core_inst $end
$var wire 32 ; Instr [31:0] $end
$var wire 32 < ReadData [31:0] $end
$var wire 1 ' clk $end
$var wire 1 % reset $end
$var wire 1 = Zero $end
$var wire 32 > WriteData [31:0] $end
$var wire 2 ? ResultSrc [1:0] $end
$var wire 1 @ RegWrite $end
$var wire 1 A PcSrc $end
$var wire 32 B PC [31:0] $end
$var wire 1 ( MemWrite $end
$var wire 1 C Jump $end
$var wire 2 D ImmSrc [1:0] $end
$var wire 1 E ALUSrc $end
$var wire 32 F ALUResult [31:0] $end
$var wire 4 G ALUControl [3:0] $end
$scope module control_unit_inst $end
$var wire 1 A PcSrc $end
$var wire 3 H funct3 [2:0] $end
$var wire 1 I funct7b5 $end
$var wire 7 J op [6:0] $end
$var wire 1 = zero $end
$var wire 2 K ResultSrc [1:0] $end
$var wire 1 @ RegWrite $end
$var wire 1 ( MemWrite $end
$var wire 1 C Jump $end
$var wire 2 L ImmSrc [1:0] $end
$var wire 1 M Branch $end
$var wire 1 E ALUSrc $end
$var wire 2 N ALUOp [1:0] $end
$var wire 4 O ALUControl [3:0] $end
$scope module alu_decoder $end
$var wire 1 P RS $end
$var wire 3 Q funct3 [2:0] $end
$var wire 1 I funct7b5 $end
$var wire 1 R opb5 $end
$var wire 2 S ALUOp [1:0] $end
$var reg 4 T ALUControl [3:0] $end
$upscope $end
$scope module main_decoder $end
$var wire 7 U op [6:0] $end
$var reg 1 E ALUSrc $end
$var reg 2 V ALUop [1:0] $end
$var reg 1 M Branch $end
$var reg 2 W ImmSrc [1:0] $end
$var reg 1 C Jump $end
$var reg 1 ( MemWrite $end
$var reg 1 @ RegWrite $end
$var reg 2 X ResultSrc [1:0] $end
$upscope $end
$upscope $end
$scope module core_datapath_inst $end
$var wire 4 Y ALUControl [3:0] $end
$var wire 1 E ALUSrc $end
$var wire 2 Z ImmSrc [1:0] $end
$var wire 32 [ Instr [31:0] $end
$var wire 32 \ PCTarget [31:0] $end
$var wire 1 A PcSrc $end
$var wire 32 ] ReadData [31:0] $end
$var wire 1 @ RegWrite $end
$var wire 2 ^ ResultSrc [1:0] $end
$var wire 1 ' clk $end
$var wire 1 % reset $end
$var wire 1 = Zero $end
$var wire 32 _ WriteData [31:0] $end
$var wire 32 ` SrcB [31:0] $end
$var wire 32 a SrcA [31:0] $end
$var wire 32 b Result [31:0] $end
$var wire 32 c PCPlus4 [31:0] $end
$var wire 32 d PCNext [31:0] $end
$var wire 32 e PC [31:0] $end
$var wire 32 f ImmExt [31:0] $end
$var wire 32 g ALUResult [31:0] $end
$scope module alu_inst $end
$var wire 4 h con [3:0] $end
$var wire 1 = zero $end
$var wire 1 i sltu $end
$var wire 1 j slt $end
$var wire 1 k neg $end
$var wire 32 l B [31:0] $end
$var wire 32 m A [31:0] $end
$var reg 1 n carry $end
$var reg 1 o overflow $end
$var reg 32 p res [31:0] $end
$var reg 33 q temp [32:0] $end
$upscope $end
$scope module alu_mux_inst $end
$var wire 1 E ALUSrc $end
$var wire 32 r WD [31:0] $end
$var wire 32 s ImmExt [31:0] $end
$var wire 32 t B [31:0] $end
$upscope $end
$scope module extend_inst $end
$var wire 2 u ImmSrc [1:0] $end
$var wire 25 v Instr [31:7] $end
$var reg 32 w ImmExt [31:0] $end
$upscope $end
$scope module pc_inst $end
$var wire 1 ' clk $end
$var wire 1 % reset $end
$var wire 32 x PCNext [31:0] $end
$var reg 32 y Pc [31:0] $end
$upscope $end
$scope module pc_mux_inst $end
$var wire 1 A PCSrc $end
$var wire 32 z PC_Target [31:0] $end
$var wire 32 { PC_Plus_4 [31:0] $end
$var wire 32 | PC_Next [31:0] $end
$upscope $end
$scope module pc_plus_4_inst $end
$var wire 32 } Pc [31:0] $end
$var wire 32 ~ PCPlus4 [31:0] $end
$upscope $end
$scope module reg_mem_block_inst $end
$var wire 1 ' clk $end
$var wire 5 !" ra1 [4:0] $end
$var wire 5 "" ra2 [4:0] $end
$var wire 5 #" ra3 [4:0] $end
$var wire 1 @ we3 $end
$var wire 32 $" wd3 [31:0] $end
$var wire 32 %" rd2 [31:0] $end
$var wire 32 &" rd1 [31:0] $end
$upscope $end
$scope module result_mux_inst $end
$var wire 32 '" ALUResult [31:0] $end
$var wire 32 (" Pc_Plus_4 [31:0] $end
$var wire 32 )" ReadData [31:0] $end
$var wire 2 *" ResultSrc [1:0] $end
$var reg 32 +" Result [31:0] $end
$upscope $end
$upscope $end
$upscope $end
$upscope $end
$upscope $end
$scope module single_cycle_top_tb $end
$var reg 1 ," clk $end
$var reg 1 -" reset $end
$scope module uut $end
$var wire 1 ," clk $end
$var wire 1 -" reset $end
$var wire 32 ." WriteData [31:0] $end
$var wire 32 /" ReadData [31:0] $end
$var wire 32 0" PC [31:0] $end
$var wire 1 1" MemWrite $end
$var wire 32 2" Instr [31:0] $end
$var wire 32 3" ALU_OUTPUT [31:0] $end
$scope module data_mem_inst $end
$var wire 32 4" RD [31:0] $end
$var wire 1 ," clk $end
$var wire 1 1" WE $end
$var wire 32 5" WD [31:0] $end
$var wire 32 6" A [31:0] $end
$upscope $end
$scope module instruction_memory_inst $end
$var wire 32 7" data [31:0] $end
$var wire 32 8" address [31:0] $end
$upscope $end
$scope module single_cycle_core_inst $end
$var wire 32 9" Instr [31:0] $end
$var wire 32 :" ReadData [31:0] $end
$var wire 1 ," clk $end
$var wire 1 -" reset $end
$var wire 1 ;" Zero $end
$var wire 32 <" WriteData [31:0] $end
$var wire 2 =" ResultSrc [1:0] $end
$var wire 1 >" RegWrite $end
$var wire 1 ?" PcSrc $end
$var wire 32 @" PC [31:0] $end
$var wire 1 1" MemWrite $end
$var wire 1 A" Jump $end
$var wire 2 B" ImmSrc [1:0] $end
$var wire 1 C" ALUSrc $end
$var wire 32 D" ALUResult [31:0] $end
$var wire 4 E" ALUControl [3:0] $end
$scope module control_unit_inst $end
$var wire 1 ?" PcSrc $end
$var wire 3 F" funct3 [2:0] $end
$var wire 1 G" funct7b5 $end
$var wire 7 H" op [6:0] $end
$var wire 1 ;" zero $end
$var wire 2 I" ResultSrc [1:0] $end
$var wire 1 >" RegWrite $end
$var wire 1 1" MemWrite $end
$var wire 1 A" Jump $end
$var wire 2 J" ImmSrc [1:0] $end
$var wire 1 K" Branch $end
$var wire 1 C" ALUSrc $end
$var wire 2 L" ALUOp [1:0] $end
$var wire 4 M" ALUControl [3:0] $end
$scope module alu_decoder $end
$var wire 1 N" RS $end
$var wire 3 O" funct3 [2:0] $end
$var wire 1 G" funct7b5 $end
$var wire 1 P" opb5 $end
$var wire 2 Q" ALUOp [1:0] $end
$var reg 4 R" ALUControl [3:0] $end
$upscope $end
$scope module main_decoder $end
$var wire 7 S" op [6:0] $end
$var reg 1 C" ALUSrc $end
$var reg 2 T" ALUop [1:0] $end
$var reg 1 K" Branch $end
$var reg 2 U" ImmSrc [1:0] $end
$var reg 1 A" Jump $end
$var reg 1 1" MemWrite $end
$var reg 1 >" RegWrite $end
$var reg 2 V" ResultSrc [1:0] $end
$upscope $end
$upscope $end
$scope module core_datapath_inst $end
$var wire 4 W" ALUControl [3:0] $end
$var wire 1 C" ALUSrc $end
$var wire 2 X" ImmSrc [1:0] $end
$var wire 32 Y" Instr [31:0] $end
$var wire 32 Z" PCTarget [31:0] $end
$var wire 1 ?" PcSrc $end
$var wire 32 [" ReadData [31:0] $end
$var wire 1 >" RegWrite $end
$var wire 2 \" ResultSrc [1:0] $end
$var wire 1 ," clk $end
$var wire 1 -" reset $end
$var wire 1 ;" Zero $end
$var wire 32 ]" WriteData [31:0] $end
$var wire 32 ^" SrcB [31:0] $end
$var wire 32 _" SrcA [31:0] $end
$var wire 32 `" Result [31:0] $end
$var wire 32 a" PCPlus4 [31:0] $end
$var wire 32 b" PCNext [31:0] $end
$var wire 32 c" PC [31:0] $end
$var wire 32 d" ImmExt [31:0] $end
$var wire 32 e" ALUResult [31:0] $end
$scope module alu_inst $end
$var wire 4 f" con [3:0] $end
$var wire 1 ;" zero $end
$var wire 1 g" sltu $end
$var wire 1 h" slt $end
$var wire 1 i" neg $end
$var wire 32 j" B [31:0] $end
$var wire 32 k" A [31:0] $end
$var reg 1 l" carry $end
$var reg 1 m" overflow $end
$var reg 32 n" res [31:0] $end
$var reg 33 o" temp [32:0] $end
$upscope $end
$scope module alu_mux_inst $end
$var wire 1 C" ALUSrc $end
$var wire 32 p" WD [31:0] $end
$var wire 32 q" ImmExt [31:0] $end
$var wire 32 r" B [31:0] $end
$upscope $end
$scope module extend_inst $end
$var wire 2 s" ImmSrc [1:0] $end
$var wire 25 t" Instr [31:7] $end
$var reg 32 u" ImmExt [31:0] $end
$upscope $end
$scope module pc_inst $end
$var wire 1 ," clk $end
$var wire 1 -" reset $end
$var wire 32 v" PCNext [31:0] $end
$var reg 32 w" Pc [31:0] $end
$upscope $end
$scope module pc_mux_inst $end
$var wire 1 ?" PCSrc $end
$var wire 32 x" PC_Target [31:0] $end
$var wire 32 y" PC_Plus_4 [31:0] $end
$var wire 32 z" PC_Next [31:0] $end
$upscope $end
$scope module pc_plus_4_inst $end
$var wire 32 {" Pc [31:0] $end
$var wire 32 |" PCPlus4 [31:0] $end
$upscope $end
$scope module reg_mem_block_inst $end
$var wire 1 ," clk $end
$var wire 5 }" ra1 [4:0] $end
$var wire 5 ~" ra2 [4:0] $end
$var wire 5 !# ra3 [4:0] $end
$var wire 1 >" we3 $end
$var wire 32 "# wd3 [31:0] $end
$var wire 32 ## rd2 [31:0] $end
$var wire 32 $# rd1 [31:0] $end
$upscope $end
$scope module result_mux_inst $end
$var wire 32 %# ALUResult [31:0] $end
$var wire 32 &# Pc_Plus_4 [31:0] $end
$var wire 32 '# ReadData [31:0] $end
$var wire 2 (# ResultSrc [1:0] $end
$var reg 32 )# Result [31:0] $end
$upscope $end
$upscope $end
$upscope $end
$upscope $end
$upscope $end
$enddefinitions $end
$comment Show the parameter values. $end
$dumpall
b1101001101101 *
$end
#0
$dumpvars
b0 )#
b0 (#
bx '#
b100 &#
b0 %#
b0 $#
b0 ##
b0 "#
b1 !#
b0 ~"
b0 }"
b100 |"
b0 {"
b100 z"
b100 y"
bz x"
b0 w"
b100 v"
b0 u"
b1 t"
b0 s"
b0 r"
b0 q"
b0 p"
b0 o"
b0 n"
0m"
0l"
b0 k"
b0 j"
0i"
0h"
0g"
b0 f"
b0 e"
b0 d"
b0 c"
b100 b"
b100 a"
b0 `"
b0 _"
b0 ^"
b0 ]"
b0 \"
bx ["
bz Z"
b10010011 Y"
b0 X"
b0 W"
b0 V"
b0 U"
b10 T"
b10011 S"
b0 R"
b10 Q"
0P"
b0 O"
0N"
b0 M"
b10 L"
0K"
b0 J"
b0 I"
b10011 H"
0G"
b0 F"
b0 E"
b0 D"
1C"
b0 B"
0A"
b0 @"
0?"
1>"
b0 ="
b0 <"
1;"
bx :"
b10010011 9"
b0 8"
b10010011 7"
b0 6"
b0 5"
bx 4"
b0 3"
b10010011 2"
01"
b0 0"
bx /"
b0 ."
1-"
0,"
bx +"
bx *"
bx )"
bx ("
bx '"
bx &"
bx %"
bx $"
bx #"
bx ""
bx !"
bx ~
bx }
bx |
bx {
bz z
bx y
bx x
bx w
bx v
bx u
bx t
bx s
bx r
bx q
bx p
xo
xn
bx m
bx l
xk
xj
xi
bx h
bx g
bx f
bx e
bx d
bx c
bx b
bx a
bx `
bx _
bx ^
bx ]
bz \
bx [
bx Z
bx Y
bx X
bx W
bx V
bx U
bx T
bx S
xR
bx Q
xP
bx O
bx N
xM
bx L
bx K
bx J
xI
bx H
bx G
bx F
xE
bx D
xC
bx B
xA
x@
bx ?
bx >
x=
bx <
bx ;
bx :
bx 9
bx 8
bx 7
bx 6
bx 5
bx 4
bx 3
bx 2
bx 1
bx 0
bx /
bx .
bx -
bx ,
bx +
bx )
x(
x'
bx &
z%
z$
bx #
bz "
bz !
$end
#5000
1,"
#10000
0,"
#15000
1,"
#20000
0,"
0-"
#25000
b1 `"
b1 "#
b1 )#
1h"
0;"
b1 3"
b1 6"
b1 D"
b1 e"
b1 n"
b1 %#
b1 o"
1g"
b1 ^"
b1 j"
b1 r"
b1 d"
b1 q"
b1 u"
b1 ~"
b10 !#
b10000000000010 t"
b1000 b"
b1000 v"
b1000 z"
b100000000000100010011 2"
b100000000000100010011 7"
b100000000000100010011 9"
b100000000000100010011 Y"
b1000 a"
b1000 y"
b1000 |"
b1000 &#
b100 0"
b100 8"
b100 @"
b100 c"
b100 w"
b100 {"
1,"
#30000
0,"
#35000
b0 `"
b0 "#
b0 )#
0h"
1;"
b0 3"
b0 6"
b0 D"
b0 e"
b0 n"
b0 %#
b0 o"
0g"
b0 ^"
b0 j"
b0 r"
b0 d"
b0 q"
b0 u"
1P"
b0 L"
b0 Q"
b0 T"
11"
b1 B"
b1 J"
b1 U"
b1 X"
b1 s"
0>"
b0 E"
b0 M"
b0 R"
b0 W"
b0 f"
b100011 H"
b100011 S"
b10 F"
b10 O"
b0 !#
b10000001000000 t"
b1100 b"
b1100 v"
b1100 z"
b100000010000000100011 2"
b100000010000000100011 7"
b100000010000000100011 9"
b100000010000000100011 Y"
b1100 a"
b1100 y"
b1100 |"
b1100 &#
b1000 0"
b1000 8"
b1000 @"
b1000 c"
b1000 w"
b1000 {"
1,"
#40000
0,"
#45000
b100 `"
b100 "#
b100 )#
1h"
0;"
b100 3"
b100 6"
b100 D"
b100 e"
b100 n"
b100 %#
b100 o"
1g"
b100 ^"
b100 j"
b100 r"
b1 ."
b1 5"
b1 <"
b1 ]"
b1 p"
b1 ##
b100 d"
b100 q"
b100 u"
b10 ~"
b100 !#
b100000001000100 t"
b10000 b"
b10000 v"
b10000 z"
b1000000010001000100011 2"
b1000000010001000100011 7"
b1000000010001000100011 9"
b1000000010001000100011 Y"
bx /"
bx 4"
bx :"
bx ["
bx '#
b10000 a"
b10000 y"
b10000 |"
b10000 &#
b1100 0"
b1100 8"
b1100 @"
b1100 c"
b1100 w"
b1100 {"
1,"
#50000
0,"
#55000
b1 `"
b1 "#
b1 )#
b1 3"
b1 6"
b1 D"
b1 e"
b1 n"
b1 %#
b1 o"
b1 ^"
b1 j"
b1 r"
b10 L"
b10 Q"
b10 T"
01"
0C"
bx B"
bx J"
bx U"
bx X"
bx s"
1>"
bx d"
bx q"
bx u"
b110011 H"
b110011 S"
b0 F"
b0 O"
b1 }"
b11 !#
b100000100000011 t"
b10100 b"
b10100 v"
b10100 z"
b1000001000000110110011 2"
b1000001000000110110011 7"
b1000001000000110110011 9"
b1000001000000110110011 Y"
b0 /"
b0 4"
b0 :"
b0 ["
b0 '#
b10100 a"
b10100 y"
b10100 |"
b10100 &#
b10000 0"
b10000 8"
b10000 @"
b10000 c"
b10000 w"
b10000 {"
1,"
#60000
0,"
#65000
bx /"
bx 4"
bx :"
bx ["
bx '#
b1000 `"
b1000 "#
b1000 )#
b1000 3"
b1000 6"
b1000 D"
b1000 e"
b1000 n"
b1000 %#
b1000 o"
b1000 ^"
b1000 j"
b1000 r"
b1000 d"
b1000 q"
b1000 u"
b0 L"
b0 Q"
b0 T"
11"
1C"
b1 B"
b1 J"
b1 U"
b1 X"
b1 s"
0>"
b0 E"
b0 M"
b0 R"
b0 W"
b0 f"
b100011 H"
b100011 S"
b10 F"
b10 O"
b0 }"
b11 ~"
b1000 !#
b110000001001000 t"
b11000 b"
b11000 v"
b11000 z"
b1100000010010000100011 2"
b1100000010010000100011 7"
b1100000010010000100011 9"
b1100000010010000100011 Y"
b11000 a"
b11000 y"
b11000 |"
b11000 &#
b10100 0"
b10100 8"
b10100 @"
b10100 c"
b10100 w"
b10100 {"
1,"
#70000
0,"
#75000
b1 `"
b1 "#
b1 )#
b1 3"
b1 6"
b1 D"
b1 e"
b1 n"
b1 %#
b1 o"
b1 ^"
b1 j"
b1 r"
b10 L"
b10 Q"
b10 T"
01"
0C"
bx B"
bx J"
bx U"
bx X"
bx s"
1>"
bx d"
bx q"
bx u"
b110011 H"
b110011 S"
b0 F"
b0 O"
b10 ~"
b1 !#
b100000000000001 t"
b11100 b"
b11100 v"
b11100 z"
b1000000000000010110011 2"
b1000000000000010110011 7"
b1000000000000010110011 9"
b1000000000000010110011 Y"
b0 /"
b0 4"
b0 :"
b0 ["
b0 '#
b11100 a"
b11100 y"
b11100 |"
b11100 &#
b11000 0"
b11000 8"
b11000 @"
b11000 c"
b11000 w"
b11000 {"
1,"
#80000
0,"
#85000
b11 ~"
b10 !#
b110000000000010 t"
b100000 b"
b100000 v"
b100000 z"
b1100000000000100110011 2"
b1100000000000100110011 7"
b1100000000000100110011 9"
b1100000000000100110011 Y"
b100000 a"
b100000 y"
b100000 |"
b100000 &#
b11100 0"
b11100 8"
b11100 @"
b11100 c"
b11100 w"
b11100 {"
1,"
#90000
0,"
#95000
b10 `"
b10 "#
b10 )#
0h"
b10 3"
b10 6"
b10 D"
b10 e"
b10 n"
b10 %#
b10 o"
0g"
b1 _"
b1 k"
b1 $#
b1 }"
b10 ~"
b11 !#
b100000100000011 t"
b100100 b"
b100100 v"
b100100 z"
b1000001000000110110011 2"
b1000001000000110110011 7"
b1000001000000110110011 9"
b1000001000000110110011 Y"
b100100 a"
b100100 y"
b100100 |"
b100100 &#
b100000 0"
b100000 8"
b100000 @"
b100000 c"
b100000 w"
b100000 {"
1,"
#100000
0,"
#105000
0i"
bx /"
bx 4"
bx :"
bx ["
bx '#
0m"
0l"
b1100 o"
b1100 `"
b1100 "#
b1100 )#
b1100 d"
b1100 q"
b1100 u"
1h"
0;"
b1100 3"
b1100 6"
b1100 D"
b1100 e"
b1100 n"
b1100 %#
b1100 ^"
b1100 j"
b1100 r"
b0 L"
b0 Q"
b0 T"
11"
1C"
b1 B"
b1 J"
b1 U"
b1 X"
b1 s"
0>"
b0 E"
b0 M"
b0 R"
b0 W"
b0 f"
1g"
b0 _"
b0 k"
b0 $#
b10 ."
b10 5"
b10 <"
b10 ]"
b10 p"
b10 ##
b100011 H"
b100011 S"
b10 F"
b10 O"
b0 }"
b11 ~"
b1100 !#
b110000001001100 t"
b101000 b"
b101000 v"
b101000 z"
b1100000010011000100011 2"
b1100000010011000100011 7"
b1100000010011000100011 9"
b1100000010011000100011 Y"
b101000 a"
b101000 y"
b101000 |"
b101000 &#
b100100 0"
b100100 8"
b100100 @"
b100100 c"
b100100 w"
b100100 {"
1,"
#110000
0,"
#115000
b1 `"
b1 "#
b1 )#
b1 3"
b1 6"
b1 D"
b1 e"
b1 n"
b1 %#
b1 o"
b1 ^"
b1 j"
b1 r"
b10 L"
b10 Q"
b10 T"
01"
0C"
bx B"
bx J"
bx U"
bx X"
bx s"
1>"
b1 ."
b1 5"
b1 <"
b1 ]"
b1 p"
b1 ##
bx d"
bx q"
bx u"
b110011 H"
b110011 S"
b0 F"
b0 O"
b10 ~"
b1 !#
b100000000000001 t"
b101100 b"
b101100 v"
b101100 z"
b1000000000000010110011 2"
b1000000000000010110011 7"
b1000000000000010110011 9"
b1000000000000010110011 Y"
b0 /"
b0 4"
b0 :"
b0 ["
b0 '#
b101100 a"
b101100 y"
b101100 |"
b101100 &#
b101000 0"
b101000 8"
b101000 @"
b101000 c"
b101000 w"
b101000 {"
1,"
#120000
0,"
#125000
b10 `"
b10 "#
b10 )#
b10 3"
b10 6"
b10 D"
b10 e"
b10 n"
b10 %#
b10 o"
b10 ^"
b10 j"
b10 r"
b10 ."
b10 5"
b10 <"
b10 ]"
b10 p"
b10 ##
b11 ~"
b10 !#
b110000000000010 t"
b110000 b"
b110000 v"
b110000 z"
b1100000000000100110011 2"
b1100000000000100110011 7"
b1100000000000100110011 9"
b1100000000000100110011 Y"
b110000 a"
b110000 y"
b110000 |"
b110000 &#
b101100 0"
b101100 8"
b101100 @"
b101100 c"
b101100 w"
b101100 {"
1,"
#130000
0,"
#135000
b11 `"
b11 "#
b11 )#
b11 3"
b11 6"
b11 D"
b11 e"
b11 n"
b11 %#
b11 o"
b1 _"
b1 k"
b1 $#
b1 }"
b10 ~"
b11 !#
b100000100000011 t"
b110100 b"
b110100 v"
b110100 z"
b1000001000000110110011 2"
b1000001000000110110011 7"
b1000001000000110110011 9"
b1000001000000110110011 Y"
b110100 a"
b110100 y"
b110100 |"
b110100 &#
b110000 0"
b110000 8"
b110000 @"
b110000 c"
b110000 w"
b110000 {"
1,"
#140000
0,"
#145000
bx /"
bx 4"
bx :"
bx ["
bx '#
b10000 o"
b10000 `"
b10000 "#
b10000 )#
1h"
b10000 d"
b10000 q"
b10000 u"
b10000 3"
b10000 6"
b10000 D"
b10000 e"
b10000 n"
b10000 %#
1g"
b10000 ^"
b10000 j"
b10000 r"
b0 L"
b0 Q"
b0 T"
11"
1C"
b1 B"
b1 J"
b1 U"
b1 X"
b1 s"
0>"
b0 E"
b0 M"
b0 R"
b0 W"
b0 f"
b0 _"
b0 k"
b0 $#
b11 ."
b11 5"
b11 <"
b11 ]"
b11 p"
b11 ##
b100011 H"
b100011 S"
b10 F"
b10 O"
b0 }"
b11 ~"
b10000 !#
b110000001010000 t"
b111000 b"
b111000 v"
b111000 z"
b1100000010100000100011 2"
b1100000010100000100011 7"
b1100000010100000100011 9"
b1100000010100000100011 Y"
b111000 a"
b111000 y"
b111000 |"
b111000 &#
b110100 0"
b110100 8"
b110100 @"
b110100 c"
b110100 w"
b110100 {"
1,"
#150000
0,"
#155000
b10 `"
b10 "#
b10 )#
b10 3"
b10 6"
b10 D"
b10 e"
b10 n"
b10 %#
b10 o"
b10 ^"
b10 j"
b10 r"
b10 L"
b10 Q"
b10 T"
01"
0C"
bx B"
bx J"
bx U"
bx X"
bx s"
1>"
b10 ."
b10 5"
b10 <"
b10 ]"
b10 p"
b10 ##
bx d"
bx q"
bx u"
b110011 H"
b110011 S"
b0 F"
b0 O"
b10 ~"
b1 !#
b100000000000001 t"
b111100 b"
b111100 v"
b111100 z"
b1000000000000010110011 2"
b1000000000000010110011 7"
b1000000000000010110011 9"
b1000000000000010110011 Y"
b0 /"
b0 4"
b0 :"
b0 ["
b0 '#
b111100 a"
b111100 y"
b111100 |"
b111100 &#
b111000 0"
b111000 8"
b111000 @"
b111000 c"
b111000 w"
b111000 {"
1,"
#160000
0,"
#165000
b11 `"
b11 "#
b11 )#
b11 3"
b11 6"
b11 D"
b11 e"
b11 n"
b11 %#
b11 o"
b11 ^"
b11 j"
b11 r"
b11 ."
b11 5"
b11 <"
b11 ]"
b11 p"
b11 ##
b11 ~"
b10 !#
b110000000000010 t"
b1000000 b"
b1000000 v"
b1000000 z"
b1100000000000100110011 2"
b1100000000000100110011 7"
b1100000000000100110011 9"
b1100000000000100110011 Y"
b1000000 a"
b1000000 y"
b1000000 |"
b1000000 &#
b111100 0"
b111100 8"
b111100 @"
b111100 c"
b111100 w"
b111100 {"
1,"
#170000
0,"
#175000
b1 /"
b1 4"
b1 :"
b1 ["
b1 '#
b101 `"
b101 "#
b101 )#
b101 3"
b101 6"
b101 D"
b101 e"
b101 n"
b101 %#
b101 o"
b10 _"
b10 k"
b10 $#
b1 }"
b10 ~"
b11 !#
b100000100000011 t"
b1000100 b"
b1000100 v"
b1000100 z"
b1000001000000110110011 2"
b1000001000000110110011 7"
b1000001000000110110011 9"
b1000001000000110110011 Y"
b1000100 a"
b1000100 y"
b1000100 |"
b1000100 &#
b1000000 0"
b1000000 8"
b1000000 @"
b1000000 c"
b1000000 w"
b1000000 {"
1,"
#180000
0,"
#185000
b10100 o"
bx /"
bx 4"
bx :"
bx ["
bx '#
b10100 `"
b10100 "#
b10100 )#
1h"
b10100 d"
b10100 q"
b10100 u"
b10100 3"
b10100 6"
b10100 D"
b10100 e"
b10100 n"
b10100 %#
1g"
b10100 ^"
b10100 j"
b10100 r"
b0 L"
b0 Q"
b0 T"
11"
1C"
b1 B"
b1 J"
b1 U"
b1 X"
b1 s"
0>"
b0 E"
b0 M"
b0 R"
b0 W"
b0 f"
b0 _"
b0 k"
b0 $#
b101 ."
b101 5"
b101 <"
b101 ]"
b101 p"
b101 ##
b100011 H"
b100011 S"
b10 F"
b10 O"
b0 }"
b11 ~"
b10100 !#
b110000001010100 t"
b1001000 b"
b1001000 v"
b1001000 z"
b1100000010101000100011 2"
b1100000010101000100011 7"
b1100000010101000100011 9"
b1100000010101000100011 Y"
b1001000 a"
b1001000 y"
b1001000 |"
b1001000 &#
b1000100 0"
b1000100 8"
b1000100 @"
b1000100 c"
b1000100 w"
b1000100 {"
1,"
#190000
0,"
#195000
b11 `"
b11 "#
b11 )#
b11 3"
b11 6"
b11 D"
b11 e"
b11 n"
b11 %#
b11 o"
b11 ^"
b11 j"
b11 r"
b10 L"
b10 Q"
b10 T"
01"
0C"
bx B"
bx J"
bx U"
bx X"
bx s"
1>"
b11 ."
b11 5"
b11 <"
b11 ]"
b11 p"
b11 ##
bx d"
bx q"
bx u"
b110011 H"
b110011 S"
b0 F"
b0 O"
b10 ~"
b1 !#
b100000000000001 t"
b1001100 b"
b1001100 v"
b1001100 z"
b1000000000000010110011 2"
b1000000000000010110011 7"
b1000000000000010110011 9"
b1000000000000010110011 Y"
b0 /"
b0 4"
b0 :"
b0 ["
b0 '#
b1001100 a"
b1001100 y"
b1001100 |"
b1001100 &#
b1001000 0"
b1001000 8"
b1001000 @"
b1001000 c"
b1001000 w"
b1001000 {"
1,"
#200000
0,"
#205000
b1 /"
b1 4"
b1 :"
b1 ["
b1 '#
b101 `"
b101 "#
b101 )#
b101 3"
b101 6"
b101 D"
b101 e"
b101 n"
b101 %#
b101 o"
b101 ^"
b101 j"
b101 r"
b101 ."
b101 5"
b101 <"
b101 ]"
b101 p"
b101 ##
b11 ~"
b10 !#
b110000000000010 t"
b1010000 b"
b1010000 v"
b1010000 z"
b1100000000000100110011 2"
b1100000000000100110011 7"
b1100000000000100110011 9"
b1100000000000100110011 Y"
b1010000 a"
b1010000 y"
b1010000 |"
b1010000 &#
b1001100 0"
b1001100 8"
b1001100 @"
b1001100 c"
b1001100 w"
b1001100 {"
1,"
#210000
0,"
#215000
b1000 `"
b1000 "#
b1000 )#
b1000 3"
b1000 6"
b1000 D"
b1000 e"
b1000 n"
b1000 %#
b1000 o"
b11 _"
b11 k"
b11 $#
b1 }"
b10 ~"
b11 !#
b100000100000011 t"
b1010100 b"
b1010100 v"
b1010100 z"
b1000001000000110110011 2"
b1000001000000110110011 7"
b1000001000000110110011 9"
b1000001000000110110011 Y"
b1010100 a"
b1010100 y"
b1010100 |"
b1010100 &#
b1010000 0"
b1010000 8"
b1010000 @"
b1010000 c"
b1010000 w"
b1010000 {"
1,"
#220000
0,"
#225000
b11000 o"
bx /"
bx 4"
bx :"
bx ["
bx '#
b11000 `"
b11000 "#
b11000 )#
1h"
b11000 d"
b11000 q"
b11000 u"
b11000 3"
b11000 6"
b11000 D"
b11000 e"
b11000 n"
b11000 %#
1g"
b11000 ^"
b11000 j"
b11000 r"
b0 L"
b0 Q"
b0 T"
11"
1C"
b1 B"
b1 J"
b1 U"
b1 X"
b1 s"
0>"
b0 E"
b0 M"
b0 R"
b0 W"
b0 f"
b0 _"
b0 k"
b0 $#
b1000 ."
b1000 5"
b1000 <"
b1000 ]"
b1000 p"
b1000 ##
b100011 H"
b100011 S"
b10 F"
b10 O"
b0 }"
b11 ~"
b11000 !#
b110000001011000 t"
b1011000 b"
b1011000 v"
b1011000 z"
b1100000010110000100011 2"
b1100000010110000100011 7"
b1100000010110000100011 9"
b1100000010110000100011 Y"
b1011000 a"
b1011000 y"
b1011000 |"
b1011000 &#
b1010100 0"
b1010100 8"
b1010100 @"
b1010100 c"
b1010100 w"
b1010100 {"
1,"
#230000
0,"
